{
  "globalDependencies": {
    "angular-protractor": "registry:dt/angular-protractor#1.5.0+20160914235635",
    "core-js": "registry:dt/core-js#0.0.0+20160914114559",
    "node": "registry:dt/node#6.0.0+20160928143418",
    "selenium-webdriver": "registry:dt/selenium-webdriver#2.53.1+20160914235635",
    "source-map": "registry:dt/source-map#0.0.0+20161003134342",
    "uglify-js": "registry:dt/uglify-js#2.6.1+20160316155526",
    "webpack": "registry:dt/webpack#1.12.9+20160927034556"
  }
}
